<?xml version="1.0" encoding="utf-8"?>
<!-- Generator: Adobe Illustrator 21.0.0, SVG Export Plug-In . SVG Version: 6.00 Build 0)  -->
<svg version="1.1" id="Layer_1" xmlns="http://www.w3.org/2000/svg" xmlns:xlink="http://www.w3.org/1999/xlink" x="0px" y="0px"
	 viewBox="0 0 45 45" style="enable-background:new 0 0 45 45;" xml:space="preserve">
<style type="text/css">
	.st0{fill:#25DABA;}
</style>
<g>
	<path class="st0" d="M29.7,4.7c-7.1,0-12.9,5.5-13.5,12.4c-0.4,0-0.8,0-1.2,0c-7.4,0-13.1,2.3-13.1,5.3v4c0,0,0,0.1,0,0.1h0v4
		c0,0.1,0,0.3,0,0.4h0v4c0,3,5.8,5.3,13.1,5.3s13.1-2.3,13.1-5.3v-3.3c0.5,0.1,1,0.1,1.6,0.1c7.5,0,13.5-6.1,13.5-13.5
		S37.1,4.7,29.7,4.7z M15,18.1c0.4,0,0.8,0,1.2,0c0,0,0,0.1,0,0.1c0,3.1,1.1,6,2.8,8.2c-1.3,0.2-2.6,0.3-4,0.3
		c-7.3,0-12.1-2.2-12.1-4.3S7.7,18.1,15,18.1z M2.8,24.5c2,1.9,6.6,3.3,12.1,3.3c1.7,0,3.3-0.1,4.8-0.4c0.8,0.9,1.8,1.7,2.9,2.4
		c-2.2,0.7-4.8,1-7.6,1c-7.3,0-12.1-2.2-12.1-4.3C2.8,26.4,2.8,24.5,2.8,24.5z M2.8,28.5c2,1.9,6.6,3.3,12.1,3.3
		c3.3,0,6.4-0.5,8.8-1.4c0.9,0.5,1.9,0.8,3,1c-1.1,1.8-5.6,3.4-11.8,3.4c-7.3,0-12.1-2.2-12.1-4.3L2.8,28.5L2.8,28.5z M27.1,35
		c0,2.1-4.9,4.3-12.1,4.3C7.7,39.3,2.8,37,2.8,35v-2.3c2,1.9,6.6,3.3,12.1,3.3c5.5,0,10.2-1.3,12.1-3.3V35z M29.7,30.7
		c-6.9,0-12.5-5.6-12.5-12.5S22.8,5.7,29.7,5.7s12.5,5.6,12.5,12.5S36.6,30.7,29.7,30.7z"/>
	<polygon class="st0" points="30.2,11 29.2,11 29.2,17.7 22.4,17.7 22.4,18.7 29.2,18.7 29.2,25.5 30.2,25.5 30.2,18.7 36.9,18.7 
		36.9,17.7 30.2,17.7 	"/>
</g>
</svg>
